{
  "project": {
    "version": "1.0.0-beta.14",
    "name": "ng2-admin-lte"
  },
  "apps": [
    {
      "root": "src",
      "outDir": "dist",
      "assets": "assets",
      "index": "index.html",
      "main": "main.ts",
      "test": "test.ts",
      "tsconfig": "tsconfig.json",
      "prefix": "app",
      "mobile": false,
      "styles": [
        "styles.css",
        "./public/assets/css/AdminLTE.min.css",
        "./public/assets/css/skins/skin-blue.min.css",
        "./public/assets/bootstrap/css/bootstrap.min.css",
        "./public/assets/font-awesome-4.6.3/css/font-awesome.min.css",
        "./public/assets/ionicons-2.0.1/css/ionicons.min.css"
      ],
      "scripts": [
        "./public/plugins/jQuery/jQuery-2.1.4.min.js",
        "./public/assets/bootstrap/js/bootstrap.min.js",
        "./public/assets/js/app.min.js"
      ],
      "environments": {
        "source": "environments/environment.ts",
        "dev": "environments/environment.ts",
        "prod": "environments/environment.prod.ts"
      }
    }
  ],
  "addons": [],
  "packages": [],
  "e2e": {
    "protractor": {
      "config": "./protractor.conf.js"
    }
  },
  "test": {
    "karma": {
      "config": "./karma.conf.js"
    }
  },
  "defaults": {
    "styleExt": "css",
    "prefixInterfaces": false
  }
}
